…
    ## # A tibble: 67 × 2
    ##    Taxon                          HubCount
    ##    <fct>                             <dbl>
    ##  1 Bacteroidales                         7
    ##  2 Sphingomonadales                      6
    ##  3 Erysipelotrichales                    6
    ##  4 Rhizobiales                           6
    ##  5 Frankiales                            5
    ##  6 Micrococcales                         5
    ##  7 Campylobacterales                     5
    ##  8 Flavobacteriales                      5
    ##  9 Saccharimonadales                     4
    ## 10 Veillonellales-Selenomonadales        4
    ## # ℹ 57 more rows
